﻿<?xml version="1.0" encoding="utf-8"?>
<svg version="1.1" xmlns:xlink="http://www.w3.org/1999/xlink" width="218px" height="175px" xmlns="http://www.w3.org/2000/svg">
  <defs>
    <filter x="550px" y="150px" width="218px" height="175px" filterUnits="userSpaceOnUse" id="filter47">
      <feOffset dx="5" dy="5" in="SourceAlpha" result="shadowOffsetInner" />
      <feGaussianBlur stdDeviation="2.5" in="shadowOffsetInner" result="shadowGaussian" />
      <feComposite in2="shadowGaussian" operator="atop" in="SourceAlpha" result="shadowComposite" />
      <feColorMatrix type="matrix" values="0 0 0 0 0  0 0 0 0 0  0 0 0 0 0  0 0 0 0.2 0  " in="shadowComposite" />
    </filter>
    <g id="widget48">
      <path d="M 608 315  C 608 315  608 258.75  608 258.75  C 608 258.75  550 150  550 150  C 550 150  608 231.101694915254  608 231.101694915254  C 608 231.101694915254  608 185  608 185  C 608 185  758 185  758 185  C 758 185  758 315  758 315  C 758 315  608 315  608 315  Z " fill-rule="nonzero" fill="#ffdf25" stroke="none" />
    </g>
  </defs>
  <g transform="matrix(1 0 0 1 -550 -150 )">
    <use xlink:href="#widget48" filter="url(#filter47)" />
    <use xlink:href="#widget48" />
  </g>
</svg>