﻿<?xml version="1.0" encoding="utf-8"?>
<svg version="1.1" xmlns:xlink="http://www.w3.org/1999/xlink" width="266px" height="54px" xmlns="http://www.w3.org/2000/svg">
  <defs>
    <filter x="90px" y="30px" width="266px" height="54px" filterUnits="userSpaceOnUse" id="filter50">
      <feOffset dx="5" dy="5" in="SourceAlpha" result="shadowOffsetInner" />
      <feGaussianBlur stdDeviation="2.5" in="shadowOffsetInner" result="shadowGaussian" />
      <feComposite in2="shadowGaussian" operator="atop" in="SourceAlpha" result="shadowComposite" />
      <feColorMatrix type="matrix" values="0 0 0 0 0  0 0 0 0 0  0 0 0 0 0  0 0 0 0.2 0  " in="shadowComposite" />
    </filter>
    <g id="widget51">
      <path d="M 182.428571428571 73.4090909090909  C 182.428571428571 73.4090909090909  182.428571428571 54.5360501567399  182.428571428571 54.5360501567399  C 182.428571428571 54.5360501567399  90 69  90 69  C 90 69  182.428571428571 34.5360501567399  182.428571428571 34.5360501567399  C 182.428571428571 34.5360501567399  182.428571428571 30.6666666666667  182.428571428571 30.6666666666667  C 182.428571428571 30.6666666666667  346 30.6666666666667  346 30.6666666666667  C 346 30.6666666666667  346 73.4090909090909  346 73.4090909090909  C 346 73.4090909090909  182.428571428571 73.4090909090909  182.428571428571 73.4090909090909  Z " fill-rule="nonzero" fill="#ffdf25" stroke="none" />
    </g>
  </defs>
  <g transform="matrix(1 0 0 1 -90 -30 )">
    <use xlink:href="#widget51" filter="url(#filter50)" />
    <use xlink:href="#widget51" />
  </g>
</svg>