﻿<?xml version="1.0" encoding="utf-8"?>
<svg version="1.1" xmlns:xlink="http://www.w3.org/1999/xlink" width="12px" height="12px" viewBox="89 121  12 12" xmlns="http://www.w3.org/2000/svg">
  <path d="M 89.5 121.5  L 100.5 121.5  L 100.5 132.5  L 89.5 132.5  L 89.5 121.5  Z " fill-rule="nonzero" fill="#f0f0f0" stroke="none" />
  <path d="M 89.5 121.5  L 100.5 121.5  L 100.5 132.5  L 89.5 132.5  L 89.5 121.5  Z " stroke-width="1" stroke="#797979" fill="none" />
  <path d="M 91.5714285714286 127  L 94.1428571428571 129.571428571429  " stroke-width="2.57142857142857" stroke="#797979" fill="none" />
  <path d="M 94.1428571428571 129.571428571429  L 98.4285714285714 123.571428571429  " stroke-width="2.57142857142857" stroke="#797979" fill="none" />
</svg>