﻿<?xml version="1.0" encoding="utf-8"?>
<svg version="1.1" xmlns:xlink="http://www.w3.org/1999/xlink" width="256px" height="101px" xmlns="http://www.w3.org/2000/svg">
  <defs>
    <filter x="184px" y="327px" width="256px" height="101px" filterUnits="userSpaceOnUse" id="filter35">
      <feOffset dx="5" dy="5" in="SourceAlpha" result="shadowOffsetInner" />
      <feGaussianBlur stdDeviation="2.5" in="shadowOffsetInner" result="shadowGaussian" />
      <feComposite in2="shadowGaussian" operator="atop" in="SourceAlpha" result="shadowComposite" />
      <feColorMatrix type="matrix" values="0 0 0 0 0  0 0 0 0 0  0 0 0 0 0  0 0 0 0.2 0  " in="shadowComposite" />
    </filter>
    <g id="widget36">
      <path d="M 280 416.676363636364  C 280 416.676363636364  280 405.300606060606  280 405.300606060606  C 280 405.300606060606  184 327  184 327  C 184 327  280 372.209696969697  280 372.209696969697  C 280 372.209696969697  280 363.4  280 363.4  C 280 363.4  430 363.4  430 363.4  C 430 363.4  430 416.676363636364  430 416.676363636364  C 430 416.676363636364  280 416.676363636364  280 416.676363636364  Z " fill-rule="nonzero" fill="#ffdf25" stroke="none" />
    </g>
  </defs>
  <g transform="matrix(1 0 0 1 -184 -327 )">
    <use xlink:href="#widget36" filter="url(#filter35)" />
    <use xlink:href="#widget36" />
  </g>
</svg>