﻿<?xml version="1.0" encoding="utf-8"?>
<svg version="1.1" xmlns:xlink="http://www.w3.org/1999/xlink" width="12px" height="12px" viewBox="688 35.5  12 12" xmlns="http://www.w3.org/2000/svg">
  <path d="M 694 35.5  C 697.36 35.5  700 38.14  700 41.5  C 700 44.86  697.36 47.5  694 47.5  C 690.64 47.5  688 44.86  688 41.5  C 688 38.14  690.64 35.5  694 35.5  Z " fill-rule="nonzero" fill="#ffffff" stroke="none" />
  <path d="M 694 36  C 697.08 36  699.5 38.42  699.5 41.5  C 699.5 44.58  697.08 47  694 47  C 690.92 47  688.5 44.58  688.5 41.5  C 688.5 38.42  690.92 36  694 36  Z " stroke-width="1" stroke="#797979" fill="none" />
</svg>