﻿<?xml version="1.0" encoding="utf-8"?>
<svg version="1.1" xmlns:xlink="http://www.w3.org/1999/xlink" width="12px" height="12px" viewBox="688 60.5  12 12" xmlns="http://www.w3.org/2000/svg">
  <path d="M 694 60.5  C 697.36 60.5  700 63.14  700 66.5  C 700 69.86  697.36 72.5  694 72.5  C 690.64 72.5  688 69.86  688 66.5  C 688 63.14  690.64 60.5  694 60.5  Z " fill-rule="nonzero" fill="#f0f0f0" stroke="none" />
  <path d="M 694 61  C 697.08 61  699.5 63.42  699.5 66.5  C 699.5 69.58  697.08 72  694 72  C 690.92 72  688.5 69.58  688.5 66.5  C 688.5 63.42  690.92 61  694 61  Z " stroke-width="1" stroke="#797979" fill="none" />
  <path d="M 694 69.5  C 692.32 69.5  691 68.18  691 66.5  C 691 64.82  692.32 63.5  694 63.5  C 695.68 63.5  697 64.82  697 66.5  C 697 68.18  695.68 69.5  694 69.5  " fill-rule="nonzero" fill="#797979" stroke="none" />
</svg>