﻿<?xml version="1.0" encoding="utf-8"?>
<svg version="1.1" xmlns:xlink="http://www.w3.org/1999/xlink" width="350px" height="99px" xmlns="http://www.w3.org/2000/svg">
  <defs>
    <filter x="256px" y="345px" width="350px" height="99px" filterUnits="userSpaceOnUse" id="filter17">
      <feOffset dx="5" dy="5" in="SourceAlpha" result="shadowOffsetInner" />
      <feGaussianBlur stdDeviation="2.5" in="shadowOffsetInner" result="shadowGaussian" />
      <feComposite in2="shadowGaussian" operator="atop" in="SourceAlpha" result="shadowComposite" />
      <feColorMatrix type="matrix" values="0 0 0 0 0  0 0 0 0 0  0 0 0 0 0  0 0 0 0.2 0  " in="shadowComposite" />
    </filter>
    <g id="widget18">
      <path d="M 446 434  C 446 434  446 427.251818181818  446 427.251818181818  C 446 427.251818181818  256 345  256 345  C 256 345  446 407.251818181818  446 407.251818181818  C 446 407.251818181818  446 374  446 374  C 446 374  596 374  596 374  C 596 374  596 434  596 434  C 596 434  446 434  446 434  Z " fill-rule="nonzero" fill="#ffdf25" stroke="none" />
    </g>
  </defs>
  <g transform="matrix(1 0 0 1 -256 -345 )">
    <use xlink:href="#widget18" filter="url(#filter17)" />
    <use xlink:href="#widget18" />
  </g>
</svg>