﻿<?xml version="1.0" encoding="utf-8"?>
<svg version="1.1" xmlns:xlink="http://www.w3.org/1999/xlink" width="190px" height="109px" xmlns="http://www.w3.org/2000/svg">
  <defs>
    <filter x="250px" y="179px" width="190px" height="109px" filterUnits="userSpaceOnUse" id="filter41">
      <feOffset dx="5" dy="5" in="SourceAlpha" result="shadowOffsetInner" />
      <feGaussianBlur stdDeviation="2.5" in="shadowOffsetInner" result="shadowGaussian" />
      <feComposite in2="shadowGaussian" operator="atop" in="SourceAlpha" result="shadowComposite" />
      <feColorMatrix type="matrix" values="0 0 0 0 0  0 0 0 0 0  0 0 0 0 0  0 0 0 0.2 0  " in="shadowComposite" />
    </filter>
    <g id="widget42">
      <path d="M 250 258  C 250 258  250 179  250 179  C 250 179  430 179  430 179  C 430 179  430 258  430 258  C 430 258  316 258  316 258  C 316 258  301 278  301 278  C 301 278  286 258  286 258  C 286 258  250 258  250 258  Z " fill-rule="nonzero" fill="#ffdf25" stroke="none" />
    </g>
  </defs>
  <g transform="matrix(1 0 0 1 -250 -179 )">
    <use xlink:href="#widget42" filter="url(#filter41)" />
    <use xlink:href="#widget42" />
  </g>
</svg>