﻿<?xml version="1.0" encoding="utf-8"?>
<svg version="1.1" xmlns:xlink="http://www.w3.org/1999/xlink" width="22px" height="22px" viewBox="628 107.5  22 22" xmlns="http://www.w3.org/2000/svg">
  <defs>
    <filter x="628px" y="107.5px" width="22px" height="22px" filterUnits="userSpaceOnUse" id="filter27">
      <feOffset dx="5" dy="5" in="SourceAlpha" result="shadowOffsetInner" />
      <feGaussianBlur stdDeviation="2.5" in="shadowOffsetInner" result="shadowGaussian" />
      <feComposite in2="shadowGaussian" operator="atop" in="SourceAlpha" result="shadowComposite" />
      <feColorMatrix type="matrix" values="0 0 0 0 0  0 0 0 0 0  0 0 0 0 0  0 0 0 0.349019607843137 0  " in="shadowComposite" />
    </filter>
    <g id="widget28">
      <path d="M 634 107.5  C 637.36 107.5  640 110.14  640 113.5  C 640 116.86  637.36 119.5  634 119.5  C 630.64 119.5  628 116.86  628 113.5  C 628 110.14  630.64 107.5  634 107.5  Z " fill-rule="nonzero" fill="#b3f6f9" stroke="none" />
      <path d="M 634 108  C 637.08 108  639.5 110.42  639.5 113.5  C 639.5 116.58  637.08 119  634 119  C 630.92 119  628.5 116.58  628.5 113.5  C 628.5 110.42  630.92 108  634 108  Z " stroke-width="1" stroke="#797979" fill="none" />
    </g>
  </defs>
  <use xlink:href="#widget28" filter="url(#filter27)" />
  <use xlink:href="#widget28" />
</svg>