﻿<?xml version="1.0" encoding="utf-8"?>
<svg version="1.1" xmlns:xlink="http://www.w3.org/1999/xlink" width="297px" height="97px" xmlns="http://www.w3.org/2000/svg">
  <defs>
    <filter x="131px" y="302px" width="297px" height="97px" filterUnits="userSpaceOnUse" id="filter58">
      <feOffset dx="5" dy="5" in="SourceAlpha" result="shadowOffsetInner" />
      <feGaussianBlur stdDeviation="2.5" in="shadowOffsetInner" result="shadowGaussian" />
      <feComposite in2="shadowGaussian" operator="atop" in="SourceAlpha" result="shadowComposite" />
      <feColorMatrix type="matrix" values="0 0 0 0 0  0 0 0 0 0  0 0 0 0 0  0 0 0 0.2 0  " in="shadowComposite" />
    </filter>
    <g id="widget59">
      <path d="M 268 357.990099009901  C 268 357.990099009901  268 302  268 302  C 268 302  418 302  418 302  C 418 302  418 357.990099009901  418 357.990099009901  C 418 357.990099009901  328 357.990099009901  328 357.990099009901  C 328 357.990099009901  131 389  131 389  C 131 389  298 357.990099009901  298 357.990099009901  C 298 357.990099009901  268 357.990099009901  268 357.990099009901  Z " fill-rule="nonzero" fill="#ffdf25" stroke="none" />
    </g>
  </defs>
  <g transform="matrix(1 0 0 1 -131 -302 )">
    <use xlink:href="#widget59" filter="url(#filter58)" />
    <use xlink:href="#widget59" />
  </g>
</svg>